Coordinates,0-0,534.6-0,696.1-556.4,241.7-469.4
Coordinates,0-0,241.7-469.4,0-1024,
Coordinates,0-1024,241.7-469.4,527.1-1024,
Coordinates,241.7-469.4,696.1-556.4,754.6-756.4,527.1-1024
Coordinates,534.6-0,1024-0,1024-439,754.5-756.4
Coordinates,527.1-1024,1024-439,1024-1024,