%YAML 1.1
%TAG !u! tag:unity3d.com,2011:
--- !u!114 &11400000
MonoBehaviour:
  m_ObjectHideFlags: 0
  m_PrefabParentObject: {fileID: 0}
  m_PrefabInternal: {fileID: 0}
  m_GameObject: {fileID: 0}
  m_Enabled: 1
  m_EditorHideFlags: 0
  m_Script: {fileID: 11500000, guid: da1ef2bedd061499a94a6140bf02f9c4, type: 3}
  m_Name: KacangPutehAnimation
  m_EditorClassIdentifier: 
  tag: KacangPutehAnimation
  list:
  - {fileID: 2800000, guid: f81c263043f404f3da675e136ea3af64, type: 3}
  - {fileID: 2800000, guid: d48ba6a04b4264e69a257644ac70848d, type: 3}
  - {fileID: 2800000, guid: 32b76e113406d4e3bb11e5cb1b0b56f3, type: 3}
  - {fileID: 2800000, guid: 9c1c9e21697f3457caf107f88e60c941, type: 3}
  - {fileID: 2800000, guid: f63f7e7148f254c01b06634f860f2ebd, type: 3}
  - {fileID: 2800000, guid: df581591c0c584994bc3d399e15e1d65, type: 3}
  - {fileID: 2800000, guid: 1f539bb2ba4554ab6a1e4c9b0b91901a, type: 3}
  - {fileID: 2800000, guid: 950a2c537804846e095859cb32a4bf5f, type: 3}
  - {fileID: 2800000, guid: c2de55c3af7cf4322bcce9f4cf6bc980, type: 3}
  - {fileID: 2800000, guid: 0262edf3f2b0a4c40b56f6c3a111af20, type: 3}
  - {fileID: 2800000, guid: 64c863c4f55bb4578a85931d071e5199, type: 3}
  - {fileID: 2800000, guid: e5d0f6c4563414372a928743441f7f64, type: 3}
  - {fileID: 2800000, guid: 047b3e262a9374c1b9f2ff078ad33156, type: 3}
  - {fileID: 2800000, guid: 024b37a683e08447e80f1e09fd0fe694, type: 3}
  - {fileID: 2800000, guid: a019cbb63835145e4a4863dc1a0b3992, type: 3}
  - {fileID: 2800000, guid: 52478d47923614e4b988ed391e1d20b8, type: 3}
  - {fileID: 2800000, guid: 3ddc96c7ae5cb4f9aae8362d4dd4b5eb, type: 3}
  - {fileID: 2800000, guid: 15395538816ee4c508f88d73db5bd852, type: 3}
  - {fileID: 2800000, guid: 0e2e2e98e5b2f435496f818ca8761563, type: 3}
  - {fileID: 2800000, guid: 80082769fb43e4b4c9fcc286b24d274f, type: 3}
  - {fileID: 2800000, guid: 2e84670ab755a47de90e7b5d052bfbd0, type: 3}
  - {fileID: 2800000, guid: e264610b9a88a44e8a58b79ae137a1ef, type: 3}
  - {fileID: 2800000, guid: c79706cb1d59c4019984c8f6bbc58099, type: 3}
  - {fileID: 2800000, guid: 0dfbf5fb1f1bd4b708065027d51ef40b, type: 3}
  - {fileID: 2800000, guid: 15bf133c3017a4127902247187d80ca6, type: 3}
  - {fileID: 2800000, guid: c494a65c4ed7c45d298c6a29f8999bb2, type: 3}
  - {fileID: 2800000, guid: ab81e2dcb51464510be868fe2951078c, type: 3}
  - {fileID: 2800000, guid: cf226f1dc653b4c809ad29868fd11b8d, type: 3}
  - {fileID: 2800000, guid: aa9defed338a242649fb17f1d78ca86a, type: 3}
  - {fileID: 2800000, guid: 1bb76f1f046d54cb3a3e436675289363, type: 3}
  targets: 0d00000009000000
