%YAML 1.1
%TAG !u! tag:unity3d.com,2011:
--- !u!114 &11400000
MonoBehaviour:
  m_ObjectHideFlags: 0
  m_PrefabParentObject: {fileID: 0}
  m_PrefabInternal: {fileID: 0}
  m_GameObject: {fileID: 0}
  m_Enabled: 1
  m_EditorHideFlags: 0
  m_Script: {fileID: 11500000, guid: cd3a1862b9c884229852fd3e71b4434e, type: 3}
  m_Name: Hint Difficullty
  m_EditorClassIdentifier: 
  csvFile: {fileID: 4900000, guid: 86061af5a6efc473f8e497f090504cf6, type: 3}
  generatedChart:
  - numOfPiece: 3
    chart:
      decreaseChart: 0
      remainChart: 9
      increaseChart: 7
  - numOfPiece: 4
    chart:
      decreaseChart: 0
      remainChart: 8
      increaseChart: 6
  - numOfPiece: 6
    chart:
      decreaseChart: 0
      remainChart: 9
      increaseChart: 5
  - numOfPiece: 8
    chart:
      decreaseChart: 0
      remainChart: 10
      increaseChart: 5
  - numOfPiece: 9
    chart:
      decreaseChart: 0
      remainChart: 8
      increaseChart: 3
  - numOfPiece: 12
    chart:
      decreaseChart: 0
      remainChart: 9
      increaseChart: 2
  - numOfPiece: 15
    chart:
      decreaseChart: 0
      remainChart: 11
      increaseChart: 2
