%YAML 1.1
%TAG !u! tag:unity3d.com,2011:
--- !u!114 &11400000
MonoBehaviour:
  m_ObjectHideFlags: 0
  m_PrefabParentObject: {fileID: 0}
  m_PrefabInternal: {fileID: 0}
  m_GameObject: {fileID: 0}
  m_Enabled: 1
  m_EditorHideFlags: 0
  m_Script: {fileID: 11500000, guid: da1ef2bedd061499a94a6140bf02f9c4, type: 3}
  m_Name: ObjectPuzzleSprites
  m_EditorClassIdentifier: 
  tag: ObjectPuzzleSprites
  list:
  - {fileID: 2800000, guid: be3fab1d2dad145fc9b5521c3ba1a3df, type: 3}
  - {fileID: 2800000, guid: fd7f675b45b154662a237c7487031cfe, type: 3}
  - {fileID: 2800000, guid: dfaf973ef11d54088a1d19a212b4f51b, type: 3}
  - {fileID: 2800000, guid: c8057392bd86249e487ea080c0c81d5f, type: 3}
  - {fileID: 2800000, guid: 30da8abab42f1494daca870a3c8eddf3, type: 3}
  - {fileID: 2800000, guid: c455feac5717742628759680843ce9f9, type: 3}
  - {fileID: 2800000, guid: 729d2085a26684410b4291b1d0ec29b4, type: 3}
  - {fileID: 2800000, guid: c396548c9782641afb516059c7a55306, type: 3}
  - {fileID: 2800000, guid: a2c604af81ea44c7fb08b54af986e9cc, type: 3}
  - {fileID: 2800000, guid: e791ade1fb61c4b5893d57fae742ccfd, type: 3}
  - {fileID: 2800000, guid: 230de0e3d221a4d09851dd2a869a7569, type: 3}
  - {fileID: 2800000, guid: 00c00f8492b9f42ff82e25d85b77c668, type: 3}
  targets: 0d00000009000000
